<?xml version="1.0" encoding="UTF-8" standalone="no"?>
<svg
   xmlns:dc="http://purl.org/dc/elements/1.1/"
   xmlns:cc="http://creativecommons.org/ns#"
   xmlns:rdf="http://www.w3.org/1999/02/22-rdf-syntax-ns#"
   xmlns:svg="http://www.w3.org/2000/svg"
   xmlns="http://www.w3.org/2000/svg"
   xmlns:sodipodi="http://sodipodi.sourceforge.net/DTD/sodipodi-0.dtd"
   xmlns:inkscape="http://www.inkscape.org/namespaces/inkscape"
   width="20"
   height="15"
   viewBox="0 0 5.2916667 3.9687499"
   version="1.1"
   id="svg8"
   inkscape:version="1.0.2 (e86c870879, 2021-01-15)"
   sodipodi:docname="es.svg">
  <defs
     id="defs2" />
  <sodipodi:namedview
     id="base"
     pagecolor="#ffffff"
     bordercolor="#666666"
     borderopacity="1.0"
     inkscape:pageopacity="0.0"
     inkscape:pageshadow="2"
     inkscape:zoom="32"
     inkscape:cx="6.7139364"
     inkscape:cy="6.6157523"
     inkscape:document-units="mm"
     inkscape:current-layer="layer1"
     inkscape:document-rotation="0"
     showgrid="false"
     fit-margin-top="0"
     fit-margin-left="0"
     fit-margin-right="0"
     fit-margin-bottom="0"
     units="px"
     inkscape:window-width="1920"
     inkscape:window-height="1010"
     inkscape:window-x="0"
     inkscape:window-y="0"
     inkscape:window-maximized="1" />
  <metadata
     id="metadata5">
    <rdf:RDF>
      <cc:Work
         rdf:about="">
        <dc:format>image/svg+xml</dc:format>
        <dc:type
           rdf:resource="http://purl.org/dc/dcmitype/StillImage" />
        <dc:title></dc:title>
      </cc:Work>
    </rdf:RDF>
  </metadata>
  <g
     inkscape:label="Calque 1"
     inkscape:groupmode="layer"
     id="layer1"
     transform="translate(-96.81681,-410.65066)">
    <rect
       style="fill:#be0000;stroke-width:0.085;stroke-linecap:square;stroke-linejoin:round;paint-order:markers stroke fill"
       id="rect845"
       width="5.2934933"
       height="0.85533851"
       x="96.815071"
       y="410.65097" />
    <rect
       style="fill:#be0000;stroke-width:0.085;stroke-linecap:square;stroke-linejoin:round;paint-order:markers stroke fill"
       id="rect845-7"
       width="5.2934933"
       height="0.85533851"
       x="96.817894"
       y="413.76459" />
    <rect
       style="fill:#ffc500;fill-opacity:1;stroke-width:0.190816;stroke-linecap:square;stroke-linejoin:round;paint-order:markers stroke fill"
       id="rect869"
       width="5.2963152"
       height="2.2582614"
       x="96.815071"
       y="411.50632" />
  </g>
</svg>
